module bitbucket.org/jokeleye/gotwilio

require (
	github.com/dgrijalva/jwt-go v3.2.0+incompatible
	github.com/google/go-querystring v1.0.0
	github.com/gorilla/schema v1.1.0
	github.com/konsorten/go-windows-terminal-sequences v1.0.2 // indirect
	github.com/sirupsen/logrus v1.4.2
	github.com/stretchr/testify v1.3.0
	golang.org/x/sys v0.0.0-20190726091711-fc99dfbffb4e // indirect
)

go 1.13
